bdd/apiFramework/Email.class
pojo/PartialUpdatePrices.class
pojo/CreateBookingDates.class
bdd/apiFramework/Email$1.class
pojo/PartialUpdateNames.class
pojo/PartialUpdateBookingDates.class
pojo/PartialUpdateAdditionalNeeds.class
pojo/CreatBookingPojo.class
